\relax 
\providecommand\hyper@newdestlabel[2]{}
\providecommand\HyperFirstAtBeginDocument{\AtBeginDocument}
\HyperFirstAtBeginDocument{\ifx\hyper@anchor\@undefined
\global\let\oldcontentsline\contentsline
\gdef\contentsline#1#2#3#4{\oldcontentsline{#1}{#2}{#3}}
\global\let\oldnewlabel\newlabel
\gdef\newlabel#1#2{\newlabelxx{#1}#2}
\gdef\newlabelxx#1#2#3#4#5#6{\oldnewlabel{#1}{{#2}{#3}}}
\AtEndDocument{\ifx\hyper@anchor\@undefined
\let\contentsline\oldcontentsline
\let\newlabel\oldnewlabel
\fi}
\fi}
\global\let\hyper@last\relax 
\gdef\HyperFirstAtBeginDocument#1{#1}
\providecommand\HyField@AuxAddToFields[1]{}
\providecommand\HyField@AuxAddToCoFields[2]{}
\providecommand\@newglossary[4]{}
\@newglossary{acronym}{alg}{acr}{acn}
\providecommand\@glsorder[1]{}
\providecommand\@istfilename[1]{}
\@istfilename{LifetimeCalc.ist}
\@glsorder{word}
\@writefile{toc}{\contentsline {section}{\numberline {1}Super-Higgs}{1}{section.1}}
\@writefile{toc}{\contentsline {section}{\numberline {2}The sfermion-fermion-gravitino vertex factor}{2}{section.2}}
\newlabel{eq:int-lagr}{{5}{2}{The sfermion-fermion-gravitino vertex factor}{equation.2.5}{}}
\newlabel{eq:s-matrix}{{6}{2}{The sfermion-fermion-gravitino vertex factor}{equation.2.6}{}}
\@writefile{toc}{\contentsline {section}{\numberline {3}Sneutrino decay rate}{3}{section.3}}
\@writefile{toc}{\contentsline {subsection}{\numberline {3.1}Matrix Element}{3}{subsection.3.1}}
\newlabel{eq:matrix-element}{{10}{3}{Matrix Element}{equation.3.10}{}}
\newlabel{eq:sqrd-matrix-elemet}{{11}{4}{Matrix Element}{equation.3.11}{}}
\@writefile{toc}{\contentsline {subsection}{\numberline {3.2}Decayrate}{4}{subsection.3.2}}
\@writefile{toc}{\contentsline {section}{\numberline {4}Old Colculations}{5}{section.4}}
\@writefile{toc}{\contentsline {subsection}{\numberline {4.1}$\mathcal  {H}_{\textrm  {int}}$ S-Matrix}{5}{subsection.4.1}}
\newlabel{eq:ffG_coupling_Lagr}{{22}{7}{$\mathcal {H}_{\textrm {int}}$ S-Matrix}{equation.4.22}{}}
\newlabel{eq:gravitinoApprox}{{23}{7}{$\mathcal {H}_{\textrm {int}}$ S-Matrix}{equation.4.23}{}}
